<svg xmlns:rdf="http://www.w3.org/1999/02/22-rdf-syntax-ns#" xmlns="http://www.w3.org/2000/svg" height="150" width="150" version="1.1" xmlns:cc="http://creativecommons.org/ns#" xmlns:dc="http://purl.org/dc/elements/1.1/" viewBox="0 0 150 150">
	<g transform="translate(0 -902.36)">
		<g style="stroke-width:1.913" transform="matrix(1.0455 0 0 1.0455 4.2852 -42.777)">
			<path style="stroke-linejoin:round;stroke:#e8002e;stroke-linecap:round;stroke-width:1.913;fill:none" d="m79.019 1022.8a14.633 14.633 0 0 1 -14.633 14.633 14.633 14.633 0 0 1 -14.633 -14.633 14.633 14.633 0 0 1 14.633 -14.633 14.633 14.633 0 0 1 14.633 14.633z"/>
			<path style="fill:#e8002e" d="m65.887 1022.8a1.5 1.5 0 0 1 -1.5 1.5 1.5 1.5 0 0 1 -1.5 -1.5 1.5 1.5 0 0 1 1.5 -1.5 1.5 1.5 0 0 1 1.5 1.5z"/>
			<path d="m42.069 913.7 25.13 93.9-25.13-93.9zm-31.056 21.9 38.575 10.69-38.575-10.69z" style="stroke-linejoin:round;fill-opacity:.0039194;fill-rule:evenodd;stroke:#e8002e;stroke-linecap:round;stroke-width:1.913;fill:#e8002e"/>
			<path d="m80.143 1020.5 41.84-11.024" style="stroke-linejoin:round;stroke:#e8002e;stroke-linecap:round;stroke-width:1.913;fill:none"/>
			<path d="m67.143 971.85 44.761-11.994 11.994 44.761-44.761 11.994z" style="stroke-linejoin:round;fill-opacity:.0039194;stroke:#e8002e;stroke-linecap:round;stroke-width:1.913;fill:#e8002e"/>
			<g style="stroke-width:2.4335" transform="matrix(.75810 -.20793 .20793 .75810 -182.89 258.8)">
				<g style="stroke-width:2.8188" transform="matrix(.74147 0 0 1.0052 116.49 -2.1548)">
					<path style="stroke-linejoin:round;stroke:#e8002e;stroke-linecap:round;stroke-width:2.8188;fill:none" d="m-37.418 976.05v26.425m-8.0601-16.492 8.2266-10.156 7.7696 10.156"/>
					<path style="stroke-linejoin:round;stroke:#e8002e;stroke-linecap:round;stroke-width:2.8188;fill:none" d="m-17.969 976.05v26.425m-8.0601-16.492 8.2266-10.156 7.7696 10.156"/>
				</g>
				<path style="stroke-linejoin:round;fill-rule:evenodd;stroke:#e8002e;stroke-linecap:round;stroke-width:2.4335;fill:#e8002e" d="m82.173 1008.2h27.482"/>
			</g>
		</g>
	</g>
</svg>
