<svg xmlns="http://www.w3.org/2000/svg" height="32" width="32" version="1.1" viewBox="0 0 32 32">
	<g transform="translate(0 -1020.4)" id="pixela-logo" fill="white">
		<path class="logo" d="m6.3644 1021.9v1.9266h1.9266v-1.9266h-1.9266zm1.9266 1.9266v1.9265h1.9266v-1.9265h-1.9266zm1.9266 0h1.9266v1.9265h-1.9266v1.9266c2.0498 0.014 4.102-0.03 6.1503 0.024 2.2388 0.2988 4.1838 2.8617 3.2273 5.0689-0.66742 1.651-2.4279 2.818-4.223 2.614h-3.228v-5.7798h-5.7798v21.193h5.7798v-9.633c2.3997-0.072 4.8626 0.2511 7.1919-0.4833 3.0767-0.8754 5.4629-3.585 6.0465-6.7162 0.74198-3.5291-0.11365-7.6388-3.0235-9.9794-2.0293-1.6971-4.7551-2.2018-7.3342-2.0871h-4.8073v1.9266z"/>
	</g>
</svg>
