<?xml version="1.0" encoding="UTF-8" standalone="no"?>
<svg
   xmlns:dc="http://purl.org/dc/elements/1.1/"
   xmlns:cc="http://creativecommons.org/ns#"
   xmlns:rdf="http://www.w3.org/1999/02/22-rdf-syntax-ns#"
   xmlns:svg="http://www.w3.org/2000/svg"
   xmlns="http://www.w3.org/2000/svg"
   height="150"
   width="150"
   version="1.1"
   viewBox="0 0 150 150"
   id="svg4346">
  <metadata
     id="metadata4370">
    <rdf:RDF>
      <cc:Work
         rdf:about="">
        <dc:format>image/svg+xml</dc:format>
        <dc:type
           rdf:resource="http://purl.org/dc/dcmitype/StillImage" />
        <dc:title></dc:title>
      </cc:Work>
    </rdf:RDF>
  </metadata>
  <defs
     id="defs4368" />
  <g
     id="g4397"
     transform="matrix(0.68248021,0,0,0.68248021,26.328133,44.700196)">
    <path
       d="m 71.776839,10.445824 64.214581,28.042563 0,67.521503 -64.214581,-28.042557 z"
       style="fill:#ff0637;fill-opacity:1;stroke:none;stroke-width:2.18134999;stroke-linecap:round;stroke-linejoin:round;stroke-opacity:1"
       id="path4391" />
    <path
       style="fill:#d6002a;fill-opacity:1;stroke:none;stroke-width:2.18134999;stroke-linecap:round;stroke-linejoin:round"
       d="m 71.776839,10.445824 -56.374808,31.962013 0,67.521503 56.374808,-31.962007 z"
       id="path4389" />
    <path
       id="path4352"
       style="fill:white;stroke:#e8002e;stroke-width:2.18134999;stroke-linecap:round;stroke-linejoin:round"
       d="m 14.703793,42.817231 64.214582,28.042563 0,67.521506 -64.214582,-28.04256 z" />
    <path
       id="path4354"
       d="m 135.17539,38.890801 -56.374808,31.962013 0,67.521506 56.374808,-31.96201 z"
       style="fill:white;stroke:#e8002e;stroke-width:2.18134999;stroke-linecap:round;stroke-linejoin:round" />
    <path
       style="fill:white;fill-opacity:1;stroke:#e8002e;stroke-width:2.18136048;stroke-linecap:round;stroke-linejoin:round"
       d="M -12.109646,43.719125 15.561045,42.817281 78.918507,70.357098 51.247816,71.258941 Z"
       id="path4358" />
    <path
       d="m 72.867382,10.926597 18.516787,-23.550539 63.357481,27.539816 -18.51679,23.55054 z"
       style="fill:white;fill-opacity:1;stroke:#e8002e;stroke-width:2.18136048;stroke-linecap:round;stroke-linejoin:round"
       id="path4360" />
    <g
       transform="matrix(-0.99201235,0.1261408,0.1261408,0.99201235,247.51046,-25.30559)"
       id="g4393">
      <path
         d="M 173.8032,97.875583 151.20747,88.652835"
         style="fill:#e8002e;fill-rule:evenodd;stroke:#e8002e;stroke-width:3.05388999;stroke-linecap:round;stroke-linejoin:round"
         id="path4362" />
      <path
         style="fill:#e8002e;fill-rule:evenodd;stroke:#e8002e;stroke-width:3.05388999;stroke-linecap:round;stroke-linejoin:round"
         d="M 173.12698,89.368318 143.64036,77.332938"
         id="path4364" />
    </g>
  </g>
  <path
     id="rect4696"
     d="m 65.455078,10.908558 0,29.660156 -6.30664,0 16.021484,20.794922 15.68164,-20.794922 -6.30664,0 0,-29.660156 -19.089844,0 z"
     style="opacity:1;fill:#005575;fill-opacity:1;stroke:none;stroke-width:0;stroke-linecap:round;stroke-linejoin:round;stroke-miterlimit:4;stroke-dasharray:none;stroke-opacity:1" />
</svg>
