<?xml version="1.0" encoding="UTF-8" standalone="no"?>
<svg
   xmlns:dc="http://purl.org/dc/elements/1.1/"
   xmlns:cc="http://creativecommons.org/ns#"
   xmlns:rdf="http://www.w3.org/1999/02/22-rdf-syntax-ns#"
   xmlns:svg="http://www.w3.org/2000/svg"
   xmlns="http://www.w3.org/2000/svg"
   id="svg4504"
   viewBox="0 0 150 150"
   version="1.1"
   width="150"
   height="150">
  <metadata
     id="metadata4528">
    <rdf:RDF>
      <cc:Work
         rdf:about="">
        <dc:format>image/svg+xml</dc:format>
        <dc:type
           rdf:resource="http://purl.org/dc/dcmitype/StillImage" />
        <dc:title></dc:title>
      </cc:Work>
    </rdf:RDF>
  </metadata>
  <defs
     id="defs4526" />
  <g
     transform="translate(1.600567,2.4877912)"
     id="g5102">
    <g
       id="g5098"
       transform="matrix(0.87451416,0,0,0.87451416,29.198434,-1.1856723)"
       style="fill:white">
      <path
         id="path4510"
         style="fill:white;stroke:#e8002e;stroke-width:2.79999995;stroke-linecap:round;stroke-linejoin:round;stroke-miterlimit:4;stroke-dasharray:none"
         d="m 15.092456,74.352728 0,-24.623704 115.339694,0.04352 0,69.044316 -90.436575,-0.0342" />
      <path
         id="path5096"
         d="m 15.894092,50.112793 56.8237,41.088433 56.967868,-41.192679"
         style="fill:white;fill-rule:evenodd;stroke:#e8002e;stroke-width:2.79999995;stroke-linecap:butt;stroke-linejoin:miter;stroke-miterlimit:4;stroke-dasharray:none;stroke-opacity:1" />
    </g>
    <g
       id="g5091"
       transform="matrix(0.80320006,0,0,1,-54.71248,13.953214)">
      <path
         id="path5085"
         d="m 113.69386,77.132046 36.30614,0"
         style="fill:none;fill-rule:evenodd;stroke:#e8002e;stroke-width:2.80999994;stroke-linecap:butt;stroke-linejoin:miter;stroke-miterlimit:4;stroke-dasharray:none;stroke-opacity:1" />
      <path
         style="fill:none;fill-rule:evenodd;stroke:#e8002e;stroke-width:2.80999994;stroke-linecap:butt;stroke-linejoin:miter;stroke-miterlimit:4;stroke-dasharray:none;stroke-opacity:1"
         d="m 70.995799,59.746008 79.004201,0"
         id="path5087" />
      <path
         id="path5089"
         d="m 84.035327,68.694704 65.964673,0"
         style="fill:none;fill-rule:evenodd;stroke:#e8002e;stroke-width:2.80999994;stroke-linecap:butt;stroke-linejoin:miter;stroke-miterlimit:4;stroke-dasharray:none;stroke-opacity:1" />
    </g>
  </g>
</svg>
